{ "photos": { "page": 1, "pages": 28, "perpage": 100, "total": "2799", 
    "photo": [
      { "id": "14323763886", "owner": "14646162@N03", "secret": "5e57e9e134", "server": "5490", "farm": 6, "title": "Eric R gave everybody in the studio their own bouquet of roses today... Just because.", "ispublic": 1, "isfriend": 0, "isfamily": 0, "latitude": 37.76471, "longitude": -122.419366, "accuracy": 16, "context": 0, "place_id": "HMGdMeJTUb_Sf_5E2g", "woeid": "23512048", "geo_is_family": 0, "geo_is_friend": 0, "geo_is_contact": 0, "geo_is_public": 1 },
      { "id": "14156236030", "owner": "14646162@N03", "secret": "33bea09195", "server": "5575", "farm": 6, "title": "Worth the sunburn", "ispublic": 1, "isfriend": 0, "isfamily": 0, "latitude": 0, "longitude": 0, "accuracy": 0, "context": 0 },
      { "id": "14339507771", "owner": "14646162@N03", "secret": "6b60e2d035", "server": "3924", "farm": 4, "title": "Fresh mango smoothy", "ispublic": 1, "isfriend": 0, "isfamily": 0, "latitude": 0, "longitude": 0, "accuracy": 0, "context": 0 },
      { "id": "14156340947", "owner": "14646162@N03", "secret": "635dc372d1", "server": "2921", "farm": 3, "title": "An other private boat", "ispublic": 1, "isfriend": 0, "isfamily": 0, "latitude": 0, "longitude": 0, "accuracy": 0, "context": 0 },
      { "id": "14156173968", "owner": "14646162@N03", "secret": "76da534609", "server": "3889", "farm": 4, "title": "One has to eat a coconunt", "ispublic": 1, "isfriend": 0, "isfamily": 0, "latitude": 0, "longitude": 0, "accuracy": 0, "context": 0 },
      { "id": "14156164728", "owner": "14646162@N03", "secret": "2321b2b709", "server": "5529", "farm": 6, "title": "Monkey", "ispublic": 1, "isfriend": 0, "isfamily": 0, "latitude": 0, "longitude": 0, "accuracy": 0, "context": 0 },
      { "id": "14341197192", "owner": "14646162@N03", "secret": "84ac0b1fb5", "server": "3899", "farm": 4, "title": "We love Thailand", "ispublic": 1, "isfriend": 0, "isfamily": 0, "latitude": 0, "longitude": 0, "accuracy": 0, "context": 0 },
      { "id": "14342015714", "owner": "14646162@N03", "secret": "32533ae6fa", "server": "2913", "farm": 3, "title": "BEACH!", "ispublic": 1, "isfriend": 0, "isfamily": 0, "latitude": 0, "longitude": 0, "accuracy": 0, "context": 0 },
      { "id": "14156155359", "owner": "14646162@N03", "secret": "be94fabd0d", "server": "5037", "farm": 6, "title": "Whitney & I & Ko Phi Phi", "ispublic": 1, "isfriend": 0, "isfamily": 0, "latitude": 0, "longitude": 0, "accuracy": 0, "context": 0 },
      { "id": "14319666676", "owner": "14646162@N03", "secret": "803c54c531", "server": "3843", "farm": 4, "title": "Ko Phi Phi tour boats", "ispublic": 1, "isfriend": 0, "isfamily": 0, "latitude": 0, "longitude": 0, "accuracy": 0, "context": 0 },
      { "id": "14156139098", "owner": "14646162@N03", "secret": "b77ab93577", "server": "3884", "farm": 4, "title": "A town", "ispublic": 1, "isfriend": 0, "isfamily": 0, "latitude": 0, "longitude": 0, "accuracy": 0, "context": 0 },
      { "id": "14362974293", "owner": "14646162@N03", "secret": "58184df334", "server": "5080", "farm": 6, "title": "Speed", "ispublic": 1, "isfriend": 0, "isfamily": 0, "latitude": 0, "longitude": 0, "accuracy": 0, "context": 0 },
      { "id": "14156294707", "owner": "14646162@N03", "secret": "d835231d26", "server": "5279", "farm": 6, "title": "Whitney & I & James Bond Island", "ispublic": 1, "isfriend": 0, "isfamily": 0, "latitude": 0, "longitude": 0, "accuracy": 0, "context": 0 },
      { "id": "14342772455", "owner": "14646162@N03", "secret": "5fa0d9f9d1", "server": "3849", "farm": 4, "title": "Lagoon", "ispublic": 1, "isfriend": 0, "isfamily": 0, "latitude": 0, "longitude": 0, "accuracy": 0, "context": 0 },
      { "id": "14156115138", "owner": "14646162@N03", "secret": "6302f71e6a", "server": "3849", "farm": 4, "title": "Dock", "ispublic": 1, "isfriend": 0, "isfamily": 0, "latitude": 0, "longitude": 0, "accuracy": 0, "context": 0 },
      { "id": "14362952333", "owner": "14646162@N03", "secret": "c27d9d8ed4", "server": "5536", "farm": 6, "title": "Whitney", "ispublic": 1, "isfriend": 0, "isfamily": 0, "latitude": 0, "longitude": 0, "accuracy": 0, "context": 0 },
      { "id": "14156272537", "owner": "14646162@N03", "secret": "f9a8b2fac0", "server": "2935", "farm": 3, "title": "Overhang", "ispublic": 1, "isfriend": 0, "isfamily": 0, "latitude": 0, "longitude": 0, "accuracy": 0, "context": 0 },
      { "id": "14156147830", "owner": "14646162@N03", "secret": "1a82c6d13d", "server": "5512", "farm": 6, "title": "The Rock", "ispublic": 1, "isfriend": 0, "isfamily": 0, "latitude": 0, "longitude": 0, "accuracy": 0, "context": 0 },
      { "id": "14156256387", "owner": "14646162@N03", "secret": "a377d77e7d", "server": "3839", "farm": 4, "title": "Nearest neighbor", "ispublic": 1, "isfriend": 0, "isfamily": 0, "latitude": 0, "longitude": 0, "accuracy": 0, "context": 0 },
      { "id": "14156085809", "owner": "14646162@N03", "secret": "642bd2c6de", "server": "3914", "farm": 4, "title": "That time we took a private boat island hopping", "ispublic": 1, "isfriend": 0, "isfamily": 0, "latitude": 0, "longitude": 0, "accuracy": 0, "context": 0 },
      { "id": "14341939524", "owner": "14646162@N03", "secret": "32c8eece40", "server": "2896", "farm": 3, "title": "Our cab driver named Lee", "ispublic": 1, "isfriend": 0, "isfamily": 0, "latitude": 0, "longitude": 0, "accuracy": 0, "context": 0 },
      { "id": "14362908153", "owner": "14646162@N03", "secret": "413123bf05", "server": "3894", "farm": 4, "title": "Making rubber", "ispublic": 1, "isfriend": 0, "isfamily": 0, "latitude": 0, "longitude": 0, "accuracy": 0, "context": 0 },
      { "id": "14341907334", "owner": "14646162@N03", "secret": "e46552513c", "server": "3851", "farm": 4, "title": "Tables", "ispublic": 1, "isfriend": 0, "isfamily": 0, "latitude": 0, "longitude": 0, "accuracy": 0, "context": 0 },
      { "id": "14155227328", "owner": "14646162@N03", "secret": "495ed3cbac", "server": "5547", "farm": 6, "title": "Breakfast", "ispublic": 1, "isfriend": 0, "isfamily": 0, "latitude": 0, "longitude": 0, "accuracy": 0, "context": 0 },
      { "id": "14341877805", "owner": "14646162@N03", "secret": "820205f1dd", "server": "3876", "farm": 4, "title": "The deck", "ispublic": 1, "isfriend": 0, "isfamily": 0, "latitude": 0, "longitude": 0, "accuracy": 0, "context": 0 },
      { "id": "14341870395", "owner": "14646162@N03", "secret": "2331a9dd3f", "server": "2928", "farm": 3, "title": "Welcome to Ko Yao Yai", "ispublic": 1, "isfriend": 0, "isfamily": 0, "latitude": 0, "longitude": 0, "accuracy": 0, "context": 0 },
      { "id": "14318733576", "owner": "14646162@N03", "secret": "79316e9c6d", "server": "5473", "farm": 6, "title": "The sea", "ispublic": 1, "isfriend": 0, "isfamily": 0, "latitude": 0, "longitude": 0, "accuracy": 0, "context": 0 },
      { "id": "14338523811", "owner": "14646162@N03", "secret": "504baca00b", "server": "3901", "farm": 4, "title": "Whitney at the On On Hotel", "ispublic": 1, "isfriend": 0, "isfamily": 0, "latitude": 0, "longitude": 0, "accuracy": 0, "context": 0 },
      { "id": "14340215912", "owner": "14646162@N03", "secret": "b030e90b25", "server": "3873", "farm": 4, "title": "Towers", "ispublic": 1, "isfriend": 0, "isfamily": 0, "latitude": 0, "longitude": 0, "accuracy": 0, "context": 0 },
      { "id": "14155181618", "owner": "14646162@N03", "secret": "6a53ae3e3c", "server": "2918", "farm": 3, "title": "Barbed wire", "ispublic": 1, "isfriend": 0, "isfamily": 0, "latitude": 0, "longitude": 0, "accuracy": 0, "context": 0 },
      { "id": "14340193202", "owner": "14646162@N03", "secret": "f24398f22e", "server": "3856", "farm": 4, "title": "Radio", "ispublic": 1, "isfriend": 0, "isfamily": 0, "latitude": 0, "longitude": 0, "accuracy": 0, "context": 0 },
      { "id": "14155319947", "owner": "14646162@N03", "secret": "0df46b3c42", "server": "2939", "farm": 3, "title": "Whitney", "ispublic": 1, "isfriend": 0, "isfamily": 0, "latitude": 0, "longitude": 0, "accuracy": 0, "context": 0 },
      { "id": "14361996273", "owner": "14646162@N03", "secret": "fa958fa4ea", "server": "5473", "farm": 6, "title": "Creepy doll advertising", "ispublic": 1, "isfriend": 0, "isfamily": 0, "latitude": 0, "longitude": 0, "accuracy": 0, "context": 0 },
      { "id": "14341795735", "owner": "14646162@N03", "secret": "976d3d363b", "server": "3875", "farm": 4, "title": "River", "ispublic": 1, "isfriend": 0, "isfamily": 0, "latitude": 0, "longitude": 0, "accuracy": 0, "context": 0 },
      { "id": "14155298887", "owner": "14646162@N03", "secret": "9446d3bda4", "server": "3906", "farm": 4, "title": "Old Phuket Town", "ispublic": 1, "isfriend": 0, "isfamily": 0, "latitude": 0, "longitude": 0, "accuracy": 0, "context": 0 },
      { "id": "14333343902", "owner": "14646162@N03", "secret": "d6f4584cd2", "server": "3853", "farm": 4, "title": "Whitney", "ispublic": 1, "isfriend": 0, "isfamily": 0, "latitude": 0, "longitude": 0, "accuracy": 0, "context": 0 },
      { "id": "14148540117", "owner": "14646162@N03", "secret": "7dcf75cf61", "server": "5594", "farm": 6, "title": "Whitney", "ispublic": 1, "isfriend": 0, "isfamily": 0, "latitude": 0, "longitude": 0, "accuracy": 0, "context": 0 },
      { "id": "14335032565", "owner": "14646162@N03", "secret": "057f4b272b", "server": "2916", "farm": 3, "title": "Kyoto", "ispublic": 1, "isfriend": 0, "isfamily": 0, "latitude": 0, "longitude": 0, "accuracy": 0, "context": 0 },
      { "id": "14148406470", "owner": "14646162@N03", "secret": "ffa26ccb4d", "server": "3908", "farm": 4, "title": "Motor Bike", "ispublic": 1, "isfriend": 0, "isfamily": 0, "latitude": 0, "longitude": 0, "accuracy": 0, "context": 0 },
      { "id": "14333316642", "owner": "14646162@N03", "secret": "6da7e758f2", "server": "5232", "farm": 6, "title": "Torii Tourists", "ispublic": 1, "isfriend": 0, "isfamily": 0, "latitude": 0, "longitude": 0, "accuracy": 0, "context": 0 },
      { "id": "14331667251", "owner": "14646162@N03", "secret": "084bf96b81", "server": "5484", "farm": 6, "title": "Torii", "ispublic": 1, "isfriend": 0, "isfamily": 0, "latitude": 0, "longitude": 0, "accuracy": 0, "context": 0 },
      { "id": "14333296302", "owner": "14646162@N03", "secret": "39ebd5052a", "server": "3882", "farm": 4, "title": "Bungallow beer bar in Kyoto", "ispublic": 1, "isfriend": 0, "isfamily": 0, "latitude": 0, "longitude": 0, "accuracy": 0, "context": 0 },
      { "id": "14355171103", "owner": "14646162@N03", "secret": "2024513e31", "server": "5483", "farm": 6, "title": "Kyoto School Kids", "ispublic": 1, "isfriend": 0, "isfamily": 0, "latitude": 0, "longitude": 0, "accuracy": 0, "context": 0 },
      { "id": "14334965555", "owner": "14646162@N03", "secret": "cdd21d2197", "server": "5529", "farm": 6, "title": "Green tea ice cream", "ispublic": 1, "isfriend": 0, "isfamily": 0, "latitude": 0, "longitude": 0, "accuracy": 0, "context": 0 },
      { "id": "14148293998", "owner": "14646162@N03", "secret": "be4ecf3788", "server": "2910", "farm": 3, "title": "We are in the bamboo", "ispublic": 1, "isfriend": 0, "isfamily": 0, "latitude": 0, "longitude": 0, "accuracy": 0, "context": 0 },
      { "id": "14148326820", "owner": "14646162@N03", "secret": "a59344fa8c", "server": "3919", "farm": 4, "title": "Me and Whit", "ispublic": 1, "isfriend": 0, "isfamily": 0, "latitude": 0, "longitude": 0, "accuracy": 0, "context": 0 },
      { "id": "14334933355", "owner": "14646162@N03", "secret": "13ee6d87aa", "server": "3911", "farm": 4, "title": "Whitney + Torii", "ispublic": 1, "isfriend": 0, "isfamily": 0, "latitude": 0, "longitude": 0, "accuracy": 0, "context": 0 },
      { "id": "14331578231", "owner": "14646162@N03", "secret": "3917c6cfbf", "server": "5584", "farm": 6, "title": "Path", "ispublic": 1, "isfriend": 0, "isfamily": 0, "latitude": 0, "longitude": 0, "accuracy": 0, "context": 0 },
      { "id": "14311776086", "owner": "14646162@N03", "secret": "0718b2a9dd", "server": "5194", "farm": 6, "title": "Whitney", "ispublic": 1, "isfriend": 0, "isfamily": 0, "latitude": 0, "longitude": 0, "accuracy": 0, "context": 0 },
      { "id": "14148245228", "owner": "14646162@N03", "secret": "f6bab79462", "server": "5583", "farm": 6, "title": "Us!", "ispublic": 1, "isfriend": 0, "isfamily": 0, "latitude": 0, "longitude": 0, "accuracy": 0, "context": 0 },
      { "id": "14148393327", "owner": "14646162@N03", "secret": "dd7091b615", "server": "3898", "farm": 4, "title": "Tall", "ispublic": 1, "isfriend": 0, "isfamily": 0, "latitude": 0, "longitude": 0, "accuracy": 0, "context": 0 },
      { "id": "14131591699", "owner": "14646162@N03", "secret": "7f8a4b88d5", "server": "3794", "farm": 4, "title": "Bamboo Forest", "ispublic": 1, "isfriend": 0, "isfamily": 0, "latitude": 0, "longitude": 0, "accuracy": 0, "context": 0 },
      { "id": "14338421633", "owner": "14646162@N03", "secret": "d59012e452", "server": "3791", "farm": 4, "title": "Wash", "ispublic": 1, "isfriend": 0, "isfamily": 0, "latitude": 0, "longitude": 0, "accuracy": 0, "context": 0 },
      { "id": "14131569309", "owner": "14646162@N03", "secret": "760ea10290", "server": "3791", "farm": 4, "title": "Rental Bicycle", "ispublic": 1, "isfriend": 0, "isfamily": 0, "latitude": 0, "longitude": 0, "accuracy": 0, "context": 0 },
      { "id": "14131556079", "owner": "14646162@N03", "secret": "20a4f8e110", "server": "3791", "farm": 4, "title": "Kanayacho Cho", "ispublic": 1, "isfriend": 0, "isfamily": 0, "latitude": 0, "longitude": 0, "accuracy": 0, "context": 0 },
      { "id": "14131528748", "owner": "14646162@N03", "secret": "297b261482", "server": "3798", "farm": 4, "title": "Bucket", "ispublic": 1, "isfriend": 0, "isfamily": 0, "latitude": 0, "longitude": 0, "accuracy": 0, "context": 0 },
      { "id": "14318178325", "owner": "14646162@N03", "secret": "bb52ff0691", "server": "3826", "farm": 4, "title": "Whitney", "ispublic": 1, "isfriend": 0, "isfamily": 0, "latitude": 0, "longitude": 0, "accuracy": 0, "context": 0 },
      { "id": "14316346212", "owner": "14646162@N03", "secret": "883ee59e51", "server": "5195", "farm": 6, "title": "Be a good neighbor cafe", "ispublic": 1, "isfriend": 0, "isfamily": 0, "latitude": 0, "longitude": 0, "accuracy": 0, "context": 0 },
      { "id": "14338343123", "owner": "14646162@N03", "secret": "8f4678f310", "server": "2901", "farm": 3, "title": "Be a good neighbor cafe", "ispublic": 1, "isfriend": 0, "isfamily": 0, "latitude": 0, "longitude": 0, "accuracy": 0, "context": 0 },
      { "id": "14316316142", "owner": "14646162@N03", "secret": "da47c64d88", "server": "3794", "farm": 4, "title": "The trip begins!", "ispublic": 1, "isfriend": 0, "isfamily": 0, "latitude": 0, "longitude": 0, "accuracy": 0, "context": 0 },
      { "id": "14289951694", "owner": "14646162@N03", "secret": "f9902890ac", "server": "5541", "farm": 6, "title": "Last night on Ko Yao Yai", "ispublic": 1, "isfriend": 0, "isfamily": 0, "latitude": 7.9261, "longitude": 98.57763, "accuracy": 16, "context": 0, "place_id": "5Xw.6oFQULijyXvH", "woeid": "1222688", "geo_is_family": 0, "geo_is_friend": 0, "geo_is_contact": 0, "geo_is_public": 1 },
      { "id": "14267581213", "owner": "14646162@N03", "secret": "74c02432b8", "server": "5037", "farm": 6, "title": "Learning Japanese (kinda)", "ispublic": 1, "isfriend": 0, "isfamily": 0, "latitude": 0, "longitude": 0, "accuracy": 0, "context": 0 },
      { "id": "14238988133", "owner": "14646162@N03", "secret": "eba8df8279", "server": "5472", "farm": 6, "title": "Sydney & Whitney at Palace of Fine Arts", "ispublic": 1, "isfriend": 0, "isfamily": 0, "latitude": 37.80363, "longitude": -122.448648, "accuracy": 16, "context": 0, "place_id": "21gEXUtTVr77GYiR", "woeid": "2445714", "geo_is_family": 0, "geo_is_friend": 0, "geo_is_contact": 0, "geo_is_public": 1 },
      { "id": "14218799045", "owner": "14646162@N03", "secret": "b0ab9ac9fb", "server": "2935", "farm": 3, "title": "The internet is teaching us a Half Windsor", "ispublic": 1, "isfriend": 0, "isfamily": 0, "latitude": 37.748055, "longitude": -122.425331, "accuracy": 16, "context": 0, "place_id": "MgdR3MpUV7PPX_VE6g", "woeid": "55970977", "geo_is_family": 0, "geo_is_friend": 0, "geo_is_contact": 1, "geo_is_public": 0 },
      { "id": "14207609835", "owner": "14646162@N03", "secret": "4a3169fcb4", "server": "5114", "farm": 6, "title": "Various parents and sisters", "ispublic": 1, "isfriend": 0, "isfamily": 0, "latitude": 37.746783, "longitude": -122.427101, "accuracy": 16, "context": 0, "place_id": "OIC.QHdTUb9iMr2ylw", "woeid": "23512053", "geo_is_family": 0, "geo_is_friend": 0, "geo_is_contact": 0, "geo_is_public": 1 },
      { "id": "14186456894", "owner": "14646162@N03", "secret": "f7b1d3f49d", "server": "7455", "farm": 8, "title": "!!!", "ispublic": 1, "isfriend": 0, "isfamily": 0, "latitude": 37.765013, "longitude": -122.41945, "accuracy": 16, "context": 0, "place_id": "HMGdMeJTUb_Sf_5E2g", "woeid": "23512048", "geo_is_family": 0, "geo_is_friend": 0, "geo_is_contact": 0, "geo_is_public": 1 },
      { "id": "14174009445", "owner": "14646162@N03", "secret": "819d091f13", "server": "7396", "farm": 8, "title": "photo", "ispublic": 1, "isfriend": 0, "isfamily": 0, "latitude": 37.801372, "longitude": -122.424828, "accuracy": 16, "context": 0, "place_id": "He2C7vxTUb89ysO9MQ", "woeid": "23512019", "geo_is_family": 0, "geo_is_friend": 0, "geo_is_contact": 0, "geo_is_public": 1 },
      { "id": "13903179167", "owner": "14646162@N03", "secret": "01baef0a3e", "server": "2909", "farm": 3, "title": "Party is over folks", "ispublic": 1, "isfriend": 0, "isfamily": 0, "latitude": 37.76483, "longitude": -122.419425, "accuracy": 16, "context": 0, "place_id": "HMGdMeJTUb_Sf_5E2g", "woeid": "23512048", "geo_is_family": 0, "geo_is_friend": 0, "geo_is_contact": 0, "geo_is_public": 1 },
      { "id": "14045495016", "owner": "14646162@N03", "secret": "0848ddea75", "server": "2904", "farm": 3, "title": "", "ispublic": 0, "isfriend": 0, "isfamily": 0, "latitude": 37.764847, "longitude": -122.419495, "accuracy": 16, "context": 0, "place_id": "HMGdMeJTUb_Sf_5E2g", "woeid": "23512048", "geo_is_family": 0, "geo_is_friend": 0, "geo_is_contact": 0, "geo_is_public": 1 },
      { "id": "14068592135", "owner": "14646162@N03", "secret": "c89d7157a9", "server": "5061", "farm": 6, "title": "", "ispublic": 0, "isfriend": 0, "isfamily": 0, "latitude": 37.76493, "longitude": -122.419464, "accuracy": 16, "context": 0, "place_id": "HMGdMeJTUb_Sf_5E2g", "woeid": "23512048", "geo_is_family": 0, "geo_is_friend": 0, "geo_is_contact": 0, "geo_is_public": 1 },
      { "id": "14011248412", "owner": "14646162@N03", "secret": "3d810811c0", "server": "2937", "farm": 3, "title": "", "ispublic": 0, "isfriend": 0, "isfamily": 0, "latitude": 0, "longitude": 0, "accuracy": 0, "context": 0 },
      { "id": "13987248862", "owner": "14646162@N03", "secret": "5846577f14", "server": "7344", "farm": 8, "title": "", "ispublic": 0, "isfriend": 0, "isfamily": 0, "latitude": 0, "longitude": 0, "accuracy": 0, "context": 0 },
      { "id": "13919081671", "owner": "14646162@N03", "secret": "340234a439", "server": "7341", "farm": 8, "title": "at Scott Circle", "ispublic": 1, "isfriend": 0, "isfamily": 0, "latitude": 38.906922, "longitude": -77.036278, "accuracy": 16, "context": 0, "place_id": "K39aF8xTVrKNjySS", "woeid": "2489965", "geo_is_family": 0, "geo_is_friend": 0, "geo_is_contact": 0, "geo_is_public": 1 },
      { "id": "13897981864", "owner": "14646162@N03", "secret": "c5de31e527", "server": "7436", "farm": 8, "title": "The office shopping list", "ispublic": 1, "isfriend": 0, "isfamily": 0, "latitude": 37.76471, "longitude": -122.419367, "accuracy": 16, "context": 0, "place_id": "HMGdMeJTUb_Sf_5E2g", "woeid": "23512048", "geo_is_family": 0, "geo_is_friend": 0, "geo_is_contact": 0, "geo_is_public": 1 },
      { "id": "13879233455", "owner": "14646162@N03", "secret": "6b44985366", "server": "3693", "farm": 4, "title": "New cards", "ispublic": 1, "isfriend": 0, "isfamily": 0, "latitude": 37.76471, "longitude": -122.419367, "accuracy": 16, "context": 0, "place_id": "HMGdMeJTUb_Sf_5E2g", "woeid": "23512048", "geo_is_family": 0, "geo_is_friend": 0, "geo_is_contact": 0, "geo_is_public": 1 },
      { "id": "13850736843", "owner": "14646162@N03", "secret": "d62c025ebb", "server": "7251", "farm": 8, "title": "Cherry Trees", "ispublic": 1, "isfriend": 0, "isfamily": 0, "latitude": 38.908899, "longitude": -77.04165, "accuracy": 16, "context": 0, "place_id": "rv8JarNTUb8_iZpCxg", "woeid": "23512095", "geo_is_family": 0, "geo_is_friend": 0, "geo_is_contact": 0, "geo_is_public": 1 },
      { "id": "13850837604", "owner": "14646162@N03", "secret": "f6aa05cbe1", "server": "7088", "farm": 8, "title": "Quiet George", "ispublic": 1, "isfriend": 0, "isfamily": 0, "latitude": 38.917046, "longitude": -77.034546, "accuracy": 16, "context": 0, "place_id": "DIaexY1TVrmU.Tr4", "woeid": "2430531", "geo_is_family": 0, "geo_is_friend": 0, "geo_is_contact": 0, "geo_is_public": 1 },
      { "id": "13782345783", "owner": "14646162@N03", "secret": "70d0ae40af", "server": "5179", "farm": 6, "title": "Lincoln", "ispublic": 1, "isfriend": 0, "isfamily": 0, "latitude": 38.889275, "longitude": -77.050087, "accuracy": 16, "context": 0, "place_id": "yGjKdflTVrwevHjs", "woeid": "2462087", "geo_is_family": 0, "geo_is_friend": 0, "geo_is_contact": 0, "geo_is_public": 1 },
      { "id": "13782340793", "owner": "14646162@N03", "secret": "3c54e7a3a6", "server": "2862", "farm": 3, "title": "", "ispublic": 0, "isfriend": 0, "isfamily": 0, "latitude": 38.889255, "longitude": -77.050034, "accuracy": 16, "context": 0, "place_id": "yGjKdflTVrwevHjs", "woeid": "2462087", "geo_is_family": 0, "geo_is_friend": 0, "geo_is_contact": 0, "geo_is_public": 1 },
      { "id": "13782661494", "owner": "14646162@N03", "secret": "234d0c2f94", "server": "7450", "farm": 8, "title": "The national mall", "ispublic": 1, "isfriend": 0, "isfamily": 0, "latitude": 38.889275, "longitude": -77.050095, "accuracy": 16, "context": 0, "place_id": "yGjKdflTVrwevHjs", "woeid": "2462087", "geo_is_family": 0, "geo_is_friend": 0, "geo_is_contact": 0, "geo_is_public": 1 },
      { "id": "13782655964", "owner": "14646162@N03", "secret": "971ec7c94a", "server": "2807", "farm": 3, "title": "Lincoln Memorial", "ispublic": 1, "isfriend": 0, "isfamily": 0, "latitude": 38.89028, "longitude": -77.049417, "accuracy": 16, "context": 0, "place_id": "yGjKdflTVrwevHjs", "woeid": "2462087", "geo_is_family": 0, "geo_is_friend": 0, "geo_is_contact": 0, "geo_is_public": 1 },
      { "id": "13781645534", "owner": "14646162@N03", "secret": "90479a5067", "server": "7251", "farm": 8, "title": "Americas wang", "ispublic": 1, "isfriend": 0, "isfamily": 0, "latitude": 38.889631, "longitude": -77.033286, "accuracy": 16, "context": 0, "place_id": "Au9VZgVTWr3odp3rqw", "woeid": "28751496", "geo_is_family": 0, "geo_is_friend": 0, "geo_is_contact": 0, "geo_is_public": 1 },
      { "id": "13768060694", "owner": "14646162@N03", "secret": "f78870ecb7", "server": "7199", "farm": 8, "title": "", "ispublic": 1, "isfriend": 0, "isfamily": 0, "latitude": 38.897579, "longitude": -77.036712, "accuracy": 16, "context": 0, "place_id": "EVTg26FTVrrKlJUJ", "woeid": "2407011", "geo_is_family": 0, "geo_is_friend": 0, "geo_is_contact": 0, "geo_is_public": 1 },
      { "id": "13761068345", "owner": "14646162@N03", "secret": "eb68289dda", "server": "7128", "farm": 8, "title": "Tahoe", "ispublic": 1, "isfriend": 0, "isfamily": 0, "latitude": 0, "longitude": 0, "accuracy": 0, "context": 0 },
      { "id": "13636333033", "owner": "14646162@N03", "secret": "88601cdd92", "server": "7257", "farm": 8, "title": "Art!", "ispublic": 1, "isfriend": 0, "isfamily": 0, "latitude": 37.759907, "longitude": -122.41185, "accuracy": 16, "context": 0, "place_id": "HmKRWORTWr0KARc3MA", "woeid": "28751314", "geo_is_family": 0, "geo_is_friend": 0, "geo_is_contact": 0, "geo_is_public": 1 },
      { "id": "13593189095", "owner": "14646162@N03", "secret": "994ee17228", "server": "7332", "farm": 8, "title": "MapTime!", "ispublic": 1, "isfriend": 0, "isfamily": 0, "latitude": 37.76471, "longitude": -122.419367, "accuracy": 16, "context": 0, "place_id": "HMGdMeJTUb_Sf_5E2g", "woeid": "23512048", "geo_is_family": 0, "geo_is_friend": 0, "geo_is_contact": 0, "geo_is_public": 1 },
      { "id": "13546286183", "owner": "14646162@N03", "secret": "181bb91cbc", "server": "3707", "farm": 4, "title": "Stamen has a record player!", "ispublic": 1, "isfriend": 0, "isfamily": 0, "latitude": 37.76471, "longitude": -122.419367, "accuracy": 16, "context": 0, "place_id": "HMGdMeJTUb_Sf_5E2g", "woeid": "23512048", "geo_is_family": 0, "geo_is_friend": 0, "geo_is_contact": 0, "geo_is_public": 1 },
      { "id": "13456483703", "owner": "14646162@N03", "secret": "5b3c35eec5", "server": "3682", "farm": 4, "title": "A new launchbottle", "ispublic": 1, "isfriend": 0, "isfamily": 0, "latitude": 37.76471, "longitude": -122.419367, "accuracy": 16, "context": 0, "place_id": "HMGdMeJTUb_Sf_5E2g", "woeid": "23512048", "geo_is_family": 0, "geo_is_friend": 0, "geo_is_contact": 0, "geo_is_public": 1 },
      { "id": "12627520213", "owner": "14646162@N03", "secret": "a8dc082f28", "server": "7382", "farm": 8, "title": "Me & Whitney", "ispublic": 1, "isfriend": 0, "isfamily": 0, "latitude": 0, "longitude": 0, "accuracy": 0, "context": 0 },
      { "id": "12627822664", "owner": "14646162@N03", "secret": "b866949729", "server": "3769", "farm": 4, "title": "Mish", "ispublic": 1, "isfriend": 0, "isfamily": 0, "latitude": 0, "longitude": 0, "accuracy": 0, "context": 0 },
      { "id": "12627476183", "owner": "14646162@N03", "secret": "6555a866f8", "server": "5515", "farm": 6, "title": "Yeehaw!", "ispublic": 1, "isfriend": 0, "isfamily": 0, "latitude": 0, "longitude": 0, "accuracy": 0, "context": 0 },
      { "id": "12627458363", "owner": "14646162@N03", "secret": "45e1c68d9a", "server": "7448", "farm": 8, "title": "Mish & Bianca", "ispublic": 1, "isfriend": 0, "isfamily": 0, "latitude": 0, "longitude": 0, "accuracy": 0, "context": 0 },
      { "id": "12627757004", "owner": "14646162@N03", "secret": "5575cbd4af", "server": "3740", "farm": 4, "title": "Whitney", "ispublic": 1, "isfriend": 0, "isfamily": 0, "latitude": 0, "longitude": 0, "accuracy": 0, "context": 0 },
      { "id": "12627296125", "owner": "14646162@N03", "secret": "b83115e720", "server": "7343", "farm": 8, "title": "Truck", "ispublic": 1, "isfriend": 0, "isfamily": 0, "latitude": 0, "longitude": 0, "accuracy": 0, "context": 0 },
      { "id": "12627401843", "owner": "14646162@N03", "secret": "5eabb6e00c", "server": "2838", "farm": 3, "title": "Lauren, Whitney, Chris", "ispublic": 1, "isfriend": 0, "isfamily": 0, "latitude": 0, "longitude": 0, "accuracy": 0, "context": 0 },
      { "id": "12627390573", "owner": "14646162@N03", "secret": "80b3b3e917", "server": "7455", "farm": 8, "title": "Henry", "ispublic": 1, "isfriend": 0, "isfamily": 0, "latitude": 0, "longitude": 0, "accuracy": 0, "context": 0 },
      { "id": "12627245645", "owner": "14646162@N03", "secret": "6c41767886", "server": "7428", "farm": 8, "title": "Pracita", "ispublic": 1, "isfriend": 0, "isfamily": 0, "latitude": 0, "longitude": 0, "accuracy": 0, "context": 0 },
      { "id": "12627692454", "owner": "14646162@N03", "secret": "12443062a8", "server": "5516", "farm": 6, "title": "Power lines", "ispublic": 1, "isfriend": 0, "isfamily": 0, "latitude": 0, "longitude": 0, "accuracy": 0, "context": 0 },
      { "id": "12627351483", "owner": "14646162@N03", "secret": "cd1347ab7a", "server": "7335", "farm": 8, "title": "Tow-Away", "ispublic": 1, "isfriend": 0, "isfamily": 0, "latitude": 0, "longitude": 0, "accuracy": 0, "context": 0 },
      { "id": "12627654424", "owner": "14646162@N03", "secret": "ec38a6c04e", "server": "7392", "farm": 8, "title": "Books", "ispublic": 1, "isfriend": 0, "isfamily": 0, "latitude": 0, "longitude": 0, "accuracy": 0, "context": 0 }
    ] }, "stat": "ok" }